…
  mutate(casos = parse_number(str_extract(text, "\\d*.\\d*(?= notificados)"), 
                              locale = locale(decimal_mark = ",")),
         uti_covid = parse_number(str_extract(text, "\\d*(?= personas en terapia)"), 
                                  locale = locale(decimal_mark = ",")),
         tests_dia = parse_number(str_extract(text, "(?<=tests del d[í|i]a: )\\d*\\.\\d*"),
                                  locale = locale(decimal_mark = ",")),
         uti_nacion = parse_number(str_extract(text, "(?<=naci[ó|o]n )\\d*.\\d."),
                                   locale = locale(decimal_mark = ",")),
         uti_amba = parse_number(str_extract(text, "(?<=amba )\\d*.\\d."),
                                 locale = locale(decimal_mark = ","))
  ) %>%
  mutate(uti_amba = ifelse(uti_amba == 367, 36.7, uti_amba)) %>% #arreglo un pequeño error de parseo
  print()

## # A tibble: 117 x 7
##    created_at          text        casos uti_covid tests_dia uti_nacion uti_amba
##    <dttm>              <chr>       <dbl>     <dbl>     <dbl>      <dbl>    <dbl>
##  1 2022-02-05 20:08:16 "llegaron ~ 21836      2630     60159       48.8     45.8
##  2 2022-02-04 20:08:03 "llegaron ~ 40094      2692     92895       49.2     46.5
##  3 2022-02-03 20:16:27 "llegaron ~ 42437      2750     85329       50.2     47.1
##  4 2022-02-02 20:14:23 "llegaron ~ 45070      2762     83319       50.5     46.7
##  5 2022-02-01 20:34:17 "llegaron ~ 49122      2864     94237       51.1     48.1
##  6 2022-01-31 20:12:17 "llegaron ~ 43472      2909     83165       52.1     48.4
##  7 2022-01-30 20:31:47 "llegaron ~ 21570      2912     46067       NA       NA  
##  8 2022-01-29 20:09:36 "llegaron ~ 41978      2924     77448       49.8     48.1
##  9 2022-01-28 20:08:45 "llegaron ~    NA      2945    111387       49.9     48.3
## 10 2022-01-27 20:14:16 "llegaron ~ 77729      2836    131582       49.7     48.1
## # ... with 107 more rows
